Version: 1.0
File: include/net/inetpeer.h:19
Symbol:
Byte size 16
struct inetpeer_addr_base {
0x0 (NULL) union (NULL) {
a4 @"typedef--__be32.txt"
a6 [4]@"typedef--__be32.txt"
in6 @"struct--in6_addr.txt"
}
}
