Version: 1.0
File: include/uapi/linux/ethtool.h:1111
Symbol:
Byte size 16
struct ethtool_dump {
0x0 cmd @"typedef--__u32.txt"
0x4 version @"typedef--__u32.txt"
0x8 flag @"typedef--__u32.txt"
0xc len @"typedef--__u32.txt"
0x10 data [0]@"typedef--__u8.txt"
}
